A Quick Introduction to tidymodels
…
]

.pull-right[

```r
# results for the first fold:
knn_tune$.metrics[[1]]
```

```
## # A tibble: 150 x 6
##    neighbors weight_func .metric .estimator .estimate .config
##        <int> <chr>       <chr>   <chr>          <dbl> <chr>  
##  1         1 biweight    rmse    standard      0.111  Model01
##  2         2 biweight    rmse    standard      0.103  Model02
##  3         3 biweight    rmse    standard      0.0982 Model03
##  4         4 biweight    rmse    standard      0.0962 Model04
##  5         5 biweight    rmse    standard      0.0950 Model05
##  6         6 biweight    rmse    standard      0.0940 Model06
##  7         7 biweight    rmse    standard      0.0925 Model07
##  8         8 biweight    rmse    standard      0.0923 Model08
##  9         9 biweight    rmse    standard      0.0926 Model09
## 10        10 biweight    rmse    standard      0.0929 Model10
## # … with 140 more rows
```
…
